<?xml version="1.0" encoding="UTF-8"?>
<svg width="898px" height="550px" viewBox="0 0 898 550" version="1.1" xmlns="http://www.w3.org/2000/svg" xmlns:xlink="http://www.w3.org/1999/xlink">
    <!-- Generator: Sketch 53 (72520) - https://sketchapp.com -->
    <title>security-risk</title>
    <desc>Created with Sketch.</desc>
    <g id="Page-1" stroke="none" stroke-width="1" fill="none" fill-rule="evenodd">
        <g id="security-risk" transform="translate(-1.000000, 0.000000)" fill-rule="nonzero">
            <g id="Group" transform="translate(692.871690, 0.000000)">
                <g id="Path">
                    <path d="M56.6211813,58.9966667 L4.58065173,58.9966667 C2.66517312,58.9966667 1.1107943,57.4438333 1.1107943,55.5261667 L1.1107943,3.476 C1.1107943,1.56016667 2.66334012,0.0055 4.58065173,0.0055 L56.6211813,0.0055 C58.5366599,0.0055 60.0910387,1.55833333 60.0910387,3.476 L60.0910387,55.5261667 C60.0892057,57.442 58.5366599,58.9966667 56.6211813,58.9966667" fill="#272359"></path>
                    <path d="M56.6211813,131.860667 L4.58065173,131.860667 C2.66517312,131.860667 1.1107943,130.307833 1.1107943,128.390167 L1.1107943,76.34 C1.1107943,74.4241667 2.66334012,72.8695 4.58065173,72.8695 L56.6211813,72.8695 C58.5366599,72.8695 60.0910387,74.4223333 60.0910387,76.34 L60.0910387,128.390167 C60.0892057,130.307833 58.5366599,131.860667 56.6211813,131.860667" fill="#6262CC"></path>
                    <path d="M129.464358,58.9966667 L77.4238289,58.9966667 C75.5083503,58.9966667 73.9539715,57.4438333 73.9539715,55.5261667 L73.9539715,3.476 C73.9539715,1.56016667 75.5065173,0.0055 77.4238289,0.0055 L129.464358,0.0055 C131.379837,0.0055 132.934216,1.55833333 132.934216,3.476 L132.934216,55.5261667 C132.934216,57.442 131.38167,58.9966667 129.464358,58.9966667" fill="#272359"></path>
                    <path d="M129.464358,131.860667 L77.4238289,131.860667 C75.5083503,131.860667 73.9539715,130.307833 73.9539715,128.390167 L73.9539715,76.34 C73.9539715,74.4241667 75.5065173,72.8695 77.4238289,72.8695 L129.464358,72.8695 C131.379837,72.8695 132.934216,74.4223333 132.934216,76.34 L132.934216,128.390167 C132.934216,130.307833 131.38167,131.860667 129.464358,131.860667" fill="#9795F9"></path>
                    <path d="M202.325866,58.9966667 L150.285336,58.9966667 C148.369857,58.9966667 146.815479,57.4438333 146.815479,55.5261667 L146.815479,3.476 C146.815479,1.56016667 148.368024,0.0055 150.285336,0.0055 L202.325866,0.0055 C204.241344,0.0055 205.795723,1.55833333 205.795723,3.476 L205.795723,55.5261667 C205.795723,57.442 204.241344,58.9966667 202.325866,58.9966667" fill="#3F3177"></path>
                    <path d="M202.325866,131.860667 L150.285336,131.860667 C148.369857,131.860667 146.815479,130.307833 146.815479,128.390167 L146.815479,76.34 C146.815479,74.4241667 148.368024,72.8695 150.285336,72.8695 L202.325866,72.8695 C204.241344,72.8695 205.795723,74.4223333 205.795723,76.34 L205.795723,128.390167 C205.795723,130.307833 204.241344,131.860667 202.325866,131.860667" fill="#3F3177"></path>
                    <path d="M150.287169,204.728333 L202.327699,204.728333 C204.243177,204.728333 205.797556,203.1755 205.797556,201.257833 L205.797556,149.207667 C205.797556,147.291833 204.24501,145.737167 202.327699,145.737167 L150.287169,145.737167 C148.37169,145.737167 146.817312,147.29 146.817312,149.207667 L146.817312,201.257833 C146.817312,203.1755 148.37169,204.728333 150.287169,204.728333" fill="#6262CC"></path>
                    <path d="M77.4256619,204.728333 L129.466191,204.728333 C131.38167,204.728333 132.936049,203.1755 132.936049,201.257833 L132.936049,149.207667 C132.936049,147.291833 131.383503,145.737167 129.466191,145.737167 L77.4256619,145.737167 C75.5101833,145.737167 73.9558045,147.29 73.9558045,149.207667 L73.9558045,201.257833 C73.9576375,203.1755 75.5101833,204.728333 77.4256619,204.728333" fill="#9795F9"></path>
                    <path d="M4.56415479,204.728333 L56.6046843,204.728333 C58.5201629,204.728333 60.0745418,203.1755 60.0745418,201.257833 L60.0745418,149.207667 C60.0745418,147.291833 58.5219959,145.737167 56.6046843,145.737167 L4.56415479,145.737167 C2.64867617,145.737167 1.09429735,147.29 1.09429735,149.207667 L1.09429735,201.257833 C1.09429735,203.1755 2.64684318,204.728333 4.56415479,204.728333" fill="#3F3177"></path>
                </g>
                <g transform="translate(25.661914, 25.666667)">
                    <ellipse id="Oval" fill="#E4E4E4" cx="77.7922607" cy="76.6993333" rx="76.3258656" ry="76.34"></ellipse>
                    <g transform="translate(65.987780, 20.166667)" fill="#D6565C" id="Path">
                        <path d="M15.8187373,77.3483333 L7.76822811,77.3483333 C4.24338086,77.3483333 1.38574338,74.4901667 1.38574338,70.9646667 L1.38574338,7.392 C1.38574338,3.8665 4.24338086,1.00833333 7.76822811,1.00833333 L15.8187373,1.00833333 C19.3435845,1.00833333 22.201222,3.8665 22.201222,7.392 L22.201222,70.9646667 C22.201222,74.4901667 19.3435845,77.3483333 15.8187373,77.3483333"></path>
                        <path d="M15.2688391,112.053333 L8.33095723,112.053333 C4.49816701,112.053333 1.39307536,108.945833 1.39307536,105.114167 L1.39307536,98.175 C1.39307536,94.3415 4.5,91.2358333 8.33095723,91.2358333 L15.2688391,91.2358333 C19.1016293,91.2358333 22.206721,94.3433333 22.206721,98.175 L22.206721,105.114167 C22.206721,108.945833 19.0997963,112.053333 15.2688391,112.053333"></path>
                    </g>
                </g>
            </g>
            <g id="Group" transform="translate(0.000000, 344.666667)">
                <g id="Path">
                    <path d="M151.020367,132.458333 L203.060896,132.458333 C204.976375,132.458333 206.530754,130.9055 206.530754,128.987833 L206.530754,76.9376667 C206.530754,75.0218333 204.978208,73.4671667 203.060896,73.4671667 L151.020367,73.4671667 C149.104888,73.4671667 147.550509,75.02 147.550509,76.9376667 L147.550509,128.987833 C147.550509,130.9055 149.104888,132.458333 151.020367,132.458333" fill="#3F3177"></path>
                    <path d="M151.020367,59.5833333 L203.060896,59.5833333 C204.976375,59.5833333 206.530754,58.0305 206.530754,56.1128333 L206.530754,4.06266667 C206.530754,2.14683333 204.978208,0.592166667 203.060896,0.592166667 L151.020367,0.592166667 C149.104888,0.592166667 147.550509,2.145 147.550509,4.06266667 L147.550509,56.1128333 C147.550509,58.0286667 149.104888,59.5833333 151.020367,59.5833333" fill="#272359"></path>
                    <path d="M151.020367,205.333333 L203.060896,205.333333 C204.976375,205.333333 206.530754,203.7805 206.530754,201.862833 L206.530754,149.812667 C206.530754,147.896833 204.978208,146.342167 203.060896,146.342167 L151.020367,146.342167 C149.104888,146.342167 147.550509,147.895 147.550509,149.812667 L147.550509,201.862833 C147.550509,203.7805 149.104888,205.333333 151.020367,205.333333" fill="#272359"></path>
                    <path d="M57.3360489,0.605 L5.29551935,0.605 C3.38004073,0.605 1.82566191,2.15783333 1.82566191,4.0755 L1.82566191,56.1256667 C1.82566191,58.0415 3.37820774,59.5961667 5.29551935,59.5961667 L57.3360489,59.5961667 C59.2515275,59.5961667 60.8059063,58.0433333 60.8059063,56.1256667 L60.8059063,4.0755 C60.8059063,2.15783333 59.2515275,0.605 57.3360489,0.605" fill="#3F3177"></path>
                    <path d="M57.3360489,73.48 L5.29551935,73.48 C3.38004073,73.48 1.82566191,75.0328333 1.82566191,76.9505 L1.82566191,129.000667 C1.82566191,130.9165 3.37820774,132.471167 5.29551935,132.471167 L57.3360489,132.471167 C59.2515275,132.471167 60.8059063,130.918333 60.8059063,129.000667 L60.8059063,76.9505 C60.8059063,75.0328333 59.2515275,73.48 57.3360489,73.48" fill="#9795F9"></path>
                    <path d="M57.3360489,146.336667 L5.29551935,146.336667 C3.38004073,146.336667 1.82566191,147.8895 1.82566191,149.807167 L1.82566191,201.857333 C1.82566191,203.775 3.37820774,205.327833 5.29551935,205.327833 L57.3360489,205.327833 C59.2515275,205.327833 60.8059063,203.775 60.8059063,201.857333 L60.8059063,149.807167 C60.8059063,147.891333 59.2515275,146.336667 57.3360489,146.336667" fill="#6262CC"></path>
                    <path d="M130.197556,0.605 L78.1551935,0.605 C76.2397149,0.605 74.685336,2.15783333 74.685336,4.0755 L74.685336,56.1256667 C74.685336,58.0415 76.2378819,59.5961667 78.1551935,59.5961667 L130.195723,59.5961667 C132.111202,59.5961667 133.66558,58.0433333 133.66558,56.1256667 L133.66558,4.0755 C133.66558,2.15783333 132.113035,0.605 130.197556,0.605" fill="#3F3177"></path>
                    <path d="M130.197556,73.48 L78.1551935,73.48 C76.2397149,73.48 74.685336,75.0328333 74.685336,76.9505 L74.685336,129.000667 C74.685336,130.9165 76.2378819,132.471167 78.1551935,132.471167 L130.195723,132.471167 C132.111202,132.471167 133.66558,130.918333 133.66558,129.000667 L133.66558,76.9505 C133.66558,75.0328333 132.113035,73.48 130.197556,73.48" fill="#272359"></path>
                    <path d="M130.197556,146.336667 L78.1551935,146.336667 C76.2397149,146.336667 74.685336,147.8895 74.685336,149.807167 L74.685336,201.857333 C74.685336,203.773167 76.2378819,205.327833 78.1551935,205.327833 L130.195723,205.327833 C132.111202,205.327833 133.66558,203.775 133.66558,201.857333 L133.66558,149.807167 C133.66558,147.891333 132.113035,146.336667 130.197556,146.336667" fill="#E4E4E4"></path>
                </g>
                <g transform="translate(27.494908, 25.666667)">
                    <ellipse id="Oval" fill="#E4E4E4" cx="76.6851324" cy="77.2933333" rx="76.3258656" ry="76.34"></ellipse>
                    <g transform="translate(65.987780, 20.166667)" fill="#D6565C" id="Path">
                        <path d="M14.7189409,77.9533333 L6.66843177,77.9533333 C3.14358452,77.9533333 0.285947047,75.0951667 0.285947047,71.5696667 L0.285947047,7.997 C0.285947047,4.4715 3.14358452,1.61333333 6.66843177,1.61333333 L14.7189409,1.61333333 C18.2437882,1.61333333 21.1014257,4.4715 21.1014257,7.997 L21.1014257,71.5696667 C21.1014257,75.0951667 18.2437882,77.9533333 14.7189409,77.9533333"></path>
                        <path d="M14.1672098,112.658333 L7.2293279,112.658333 C3.39653768,112.658333 0.291446029,109.550833 0.291446029,105.719167 L0.291446029,98.78 C0.291446029,94.9465 3.39837067,91.8408333 7.2293279,91.8408333 L14.1672098,91.8408333 C18,91.8408333 21.1050916,94.9483333 21.1050916,98.78 L21.1050916,105.719167 C21.1050916,109.550833 17.998167,112.658333 14.1672098,112.658333"></path>
                    </g>
                </g>
            </g>
            <g id="Group">
                <g id="Path">
                    <path d="M57.3360489,60.72 L5.29551935,60.72 C3.37820774,60.72 1.82566191,59.1671667 1.82566191,57.2495 L1.82566191,5.19933333 C1.82566191,3.2835 3.37820774,1.72883333 5.29551935,1.72883333 L57.3360489,1.72883333 C59.2515275,1.72883333 60.8059063,3.28166667 60.8059063,5.19933333 L60.8059063,57.2495 C60.8059063,59.1671667 59.2515275,60.72 57.3360489,60.72" fill="#6262CC"></path>
                    <path d="M57.3360489,133.596833 L5.29551935,133.596833 C3.37820774,133.596833 1.82566191,132.042167 1.82566191,130.126333 L1.82566191,78.0761667 C1.82566191,76.1603333 3.37820774,74.6056667 5.29551935,74.6056667 L57.3360489,74.6056667 C59.2515275,74.6056667 60.8059063,76.1585 60.8059063,78.0761667 L60.8059063,130.126333 C60.8059063,132.042167 59.2515275,133.596833 57.3360489,133.596833" fill="#9795F9"></path>
                    <path d="M130.197556,60.72 L78.1551935,60.72 C76.2397149,60.72 74.685336,59.1671667 74.685336,57.2495 L74.685336,5.19933333 C74.685336,3.2835 76.2378819,1.72883333 78.1551935,1.72883333 L130.195723,1.72883333 C132.111202,1.72883333 133.66558,3.28166667 133.66558,5.19933333 L133.66558,57.2495 C133.66558,59.1671667 132.113035,60.72 130.197556,60.72" fill="#9795F9"></path>
                    <path d="M130.197556,133.596833 L78.1551935,133.596833 C76.2397149,133.596833 74.685336,132.044 74.685336,130.126333 L74.685336,78.0761667 C74.685336,76.1603333 76.2378819,74.6056667 78.1551935,74.6056667 L130.195723,74.6056667 C132.111202,74.6056667 133.66558,76.1585 133.66558,78.0761667 L133.66558,130.126333 C133.66558,132.042167 132.113035,133.596833 130.197556,133.596833" fill="#E4E4E4"></path>
                    <path d="M203.059063,60.72 L151.018534,60.72 C149.103055,60.72 147.548676,59.1671667 147.548676,57.2495 L147.548676,5.19933333 C147.548676,3.2835 149.101222,1.72883333 151.018534,1.72883333 L203.059063,1.72883333 C204.974542,1.72883333 206.528921,3.28166667 206.528921,5.19933333 L206.528921,57.2495 C206.528921,59.1671667 204.976375,60.72 203.059063,60.72" fill="#272359"></path>
                    <path d="M203.059063,133.596833 L151.018534,133.596833 C149.103055,133.596833 147.548676,132.044 147.548676,130.126333 L147.548676,78.0761667 C147.548676,76.1603333 149.101222,74.6056667 151.018534,74.6056667 L203.059063,74.6056667 C204.974542,74.6056667 206.528921,76.1585 206.528921,78.0761667 L206.528921,130.126333 C206.528921,132.042167 204.976375,133.596833 203.059063,133.596833" fill="#6262CC"></path>
                    <path d="M151.020367,206.47 L203.060896,206.47 C204.976375,206.47 206.530754,204.917167 206.530754,202.9995 L206.530754,150.949333 C206.530754,149.0335 204.978208,147.478833 203.060896,147.478833 L151.020367,147.478833 C149.104888,147.478833 147.550509,149.031667 147.550509,150.949333 L147.550509,202.9995 C147.550509,204.917167 149.104888,206.47 151.020367,206.47" fill="#3F3177"></path>
                    <path d="M78.1588595,206.47 L130.199389,206.47 C132.114868,206.47 133.669246,204.917167 133.669246,202.9995 L133.669246,150.949333 C133.669246,149.0335 132.116701,147.478833 130.199389,147.478833 L78.1588595,147.478833 C76.2433809,147.478833 74.689002,149.031667 74.689002,150.949333 L74.689002,202.9995 C74.690835,204.917167 76.2433809,206.47 78.1588595,206.47" fill="#6262CC"></path>
                    <path d="M5.30285132,206.47 L57.3433809,206.47 C59.2588595,206.47 60.8132383,204.917167 60.8132383,202.9995 L60.8132383,150.949333 C60.8132383,149.0335 59.2606925,147.478833 57.3433809,147.478833 L5.30285132,147.478833 C3.38553971,147.480667 1.83299389,149.0335 1.83299389,150.949333 L1.83299389,202.9995 C1.83299389,204.917167 3.38553971,206.47 5.30285132,206.47" fill="#E4E4E4"></path>
                </g>
                <g transform="translate(27.494908, 27.500000)">
                    <ellipse id="Oval" fill="#E4E4E4" cx="76.6851324" cy="76.6003333" rx="76.3258656" ry="76.34"></ellipse>
                    <path d="M120.843788,44.715 L115.938697,39.809 C113.227699,37.0975 108.834012,37.0975 106.124847,39.809 L57.0592668,88.8818333 L47.2454175,79.0661667 C44.5362525,76.3565 40.1425662,76.3565 37.4315682,79.0661667 L32.5264766,83.974 C29.8173116,86.6836667 29.8173116,91.0781667 32.5264766,93.7878333 L47.2454175,108.5095 L48.2260692,109.492167 L52.1505092,113.417333 C52.9276986,114.194667 53.8515275,114.7245 54.8266802,115.0545 C57.2517312,115.877667 60.0323829,115.349667 61.9643585,113.417333 L120.840122,54.5306667 C123.55112,51.821 123.55112,47.4283333 120.841955,44.7168333" id="Path" fill="#139B8B"></path>
                </g>
            </g>
            <g id="Group" transform="translate(346.435845, 344.666667)">
                <g id="Path">
                    <path d="M56.107943,59.5833333 L4.06741344,59.5833333 C2.15193483,59.5833333 0.597556008,58.0305 0.597556008,56.1128333 L0.597556008,4.06266667 C0.597556008,2.14683333 2.15010183,0.592166667 4.06741344,0.592166667 L56.107943,0.592166667 C58.0234216,0.592166667 59.5778004,2.145 59.5778004,4.06266667 L59.5778004,56.1128333 C59.5778004,58.0286667 58.0234216,59.5833333 56.107943,59.5833333" fill="#9795F9"></path>
                    <path d="M56.107943,132.458333 L4.06741344,132.458333 C2.15193483,132.458333 0.597556008,130.9055 0.597556008,128.987833 L0.597556008,76.9376667 C0.597556008,75.0218333 2.15010183,73.4671667 4.06741344,73.4671667 L56.107943,73.4671667 C58.0234216,73.4671667 59.5778004,75.02 59.5778004,76.9376667 L59.5778004,128.987833 C59.5778004,130.9055 58.0234216,132.458333 56.107943,132.458333" fill="#E4E4E4"></path>
                    <path d="M128.96945,59.5833333 L76.9289206,59.5833333 C75.013442,59.5833333 73.4590631,58.0305 73.4590631,56.1128333 L73.4590631,4.06266667 C73.4590631,2.14683333 75.011609,0.592166667 76.9289206,0.592166667 L128.96945,0.592166667 C130.884929,0.592166667 132.439308,2.145 132.439308,4.06266667 L132.439308,56.1128333 C132.439308,58.0286667 130.884929,59.5833333 128.96945,59.5833333" fill="#272359"></path>
                    <path d="M128.96945,132.458333 L76.9289206,132.458333 C75.013442,132.458333 73.4590631,130.9055 73.4590631,128.987833 L73.4590631,76.9376667 C73.4590631,75.0218333 75.011609,73.4671667 76.9289206,73.4671667 L128.96945,73.4671667 C130.884929,73.4671667 132.439308,75.02 132.439308,76.9376667 L132.439308,128.987833 C132.439308,130.9055 130.884929,132.458333 128.96945,132.458333" fill="#6262CC"></path>
                    <path d="M201.830957,59.5833333 L149.790428,59.5833333 C147.874949,59.5833333 146.32057,58.0305 146.32057,56.1128333 L146.32057,4.06266667 C146.32057,2.14683333 147.873116,0.592166667 149.790428,0.592166667 L201.830957,0.592166667 C203.746436,0.592166667 205.300815,2.145 205.300815,4.06266667 L205.300815,56.1128333 C205.300815,58.0286667 203.748269,59.5833333 201.830957,59.5833333" fill="#272359"></path>
                    <path d="M201.830957,132.458333 L149.790428,132.458333 C147.874949,132.458333 146.32057,130.9055 146.32057,128.987833 L146.32057,76.9376667 C146.32057,75.0218333 147.873116,73.4671667 149.790428,73.4671667 L201.830957,73.4671667 C203.746436,73.4671667 205.300815,75.02 205.300815,76.9376667 L205.300815,128.987833 C205.300815,130.9055 203.748269,132.458333 201.830957,132.458333" fill="#9795F9"></path>
                    <path d="M149.792261,205.333333 L201.83279,205.333333 C203.748269,205.333333 205.302648,203.7805 205.302648,201.862833 L205.302648,149.812667 C205.302648,147.896833 203.750102,146.342167 201.83279,146.342167 L149.792261,146.342167 C147.876782,146.342167 146.322403,147.895 146.322403,149.812667 L146.322403,201.862833 C146.324236,203.7805 147.876782,205.333333 149.792261,205.333333" fill="#9795F9"></path>
                    <path d="M76.9307536,205.333333 L128.971283,205.333333 C130.886762,205.333333 132.441141,203.7805 132.441141,201.862833 L132.441141,149.812667 C132.441141,147.896833 130.888595,146.342167 128.971283,146.342167 L76.9307536,146.342167 C75.0152749,146.342167 73.4608961,147.895 73.4608961,149.812667 L73.4608961,201.862833 C73.4608961,203.7805 75.013442,205.333333 76.9307536,205.333333" fill="#3F3177"></path>
                    <path d="M4.06924644,205.333333 L56.109776,205.333333 C58.0252546,205.333333 59.5796334,203.7805 59.5796334,201.862833 L59.5796334,149.812667 C59.5796334,147.896833 58.0270876,146.342167 56.109776,146.342167 L4.06924644,146.342167 C2.15376782,146.342167 0.599389002,147.895 0.599389002,149.812667 L0.599389002,201.862833 C0.599389002,203.7805 2.15376782,205.333333 4.06924644,205.333333" fill="#6262CC"></path>
                </g>
                <g transform="translate(25.661914, 25.666667)">
                    <ellipse id="Oval" fill="#E4E4E4" cx="77.2790224" cy="77.2933333" rx="76.3258656" ry="76.34"></ellipse>
                    <path d="M121.454175,45.4116667 L116.549084,40.5056667 C113.838086,37.7941667 109.444399,37.7941667 106.735234,40.5056667 L57.6714868,89.5785 L47.8576375,79.7628333 C45.1484725,77.0531667 40.7547862,77.0531667 38.0437882,79.7628333 L33.1386965,84.6706667 C30.4295316,87.3803333 30.4295316,91.7748333 33.1386965,94.4845 L47.8576375,109.206167 L48.8382892,110.188833 L52.7627291,114.114 C53.5399185,114.891333 54.4637475,115.421167 55.4389002,115.751167 C57.8639511,116.574333 60.6446029,116.046333 62.5765784,114.114 L121.452342,55.2273333 C124.161507,52.5176667 124.161507,48.1231667 121.452342,45.4135" id="Path" fill="#139B8B"></path>
                </g>
            </g>
            <g id="Group" transform="translate(692.871690, 344.666667)">
                <g id="Path">
                    <path d="M56.6211813,59.5833333 L4.58065173,59.5833333 C2.66517312,59.5833333 1.1107943,58.0305 1.1107943,56.1128333 L1.1107943,4.06266667 C1.1107943,2.14683333 2.66334012,0.592166667 4.58065173,0.592166667 L56.6211813,0.592166667 C58.5366599,0.592166667 60.0910387,2.145 60.0910387,4.06266667 L60.0910387,56.1128333 C60.0892057,58.0286667 58.5366599,59.5833333 56.6211813,59.5833333" fill="#9795F9"></path>
                    <path d="M56.6211813,132.458333 L4.58065173,132.458333 C2.66517312,132.458333 1.1107943,130.9055 1.1107943,128.987833 L1.1107943,76.9376667 C1.1107943,75.0218333 2.66334012,73.4671667 4.58065173,73.4671667 L56.6211813,73.4671667 C58.5366599,73.4671667 60.0910387,75.02 60.0910387,76.9376667 L60.0910387,128.987833 C60.0892057,130.9055 58.5366599,132.458333 56.6211813,132.458333" fill="#E4E4E4"></path>
                    <path d="M129.464358,59.5833333 L77.4238289,59.5833333 C75.5083503,59.5833333 73.9539715,58.0305 73.9539715,56.1128333 L73.9539715,4.06266667 C73.9539715,2.14683333 75.5065173,0.592166667 77.4238289,0.592166667 L129.464358,0.592166667 C131.379837,0.592166667 132.934216,2.145 132.934216,4.06266667 L132.934216,56.1128333 C132.934216,58.0286667 131.38167,59.5833333 129.464358,59.5833333" fill="#272359"></path>
                    <path d="M129.464358,132.458333 L77.4238289,132.458333 C75.5083503,132.458333 73.9539715,130.9055 73.9539715,128.987833 L73.9539715,76.9376667 C73.9539715,75.0218333 75.5065173,73.4671667 77.4238289,73.4671667 L129.464358,73.4671667 C131.379837,73.4671667 132.934216,75.02 132.934216,76.9376667 L132.934216,128.987833 C132.934216,130.9055 131.38167,132.458333 129.464358,132.458333" fill="#6262CC"></path>
                    <path d="M202.325866,59.5833333 L150.285336,59.5833333 C148.369857,59.5833333 146.815479,58.0305 146.815479,56.1128333 L146.815479,4.06266667 C146.815479,2.14683333 148.368024,0.592166667 150.285336,0.592166667 L202.325866,0.592166667 C204.241344,0.592166667 205.795723,2.145 205.795723,4.06266667 L205.795723,56.1128333 C205.795723,58.0286667 204.241344,59.5833333 202.325866,59.5833333" fill="#272359"></path>
                    <path d="M202.325866,132.458333 L150.285336,132.458333 C148.369857,132.458333 146.815479,130.9055 146.815479,128.987833 L146.815479,76.9376667 C146.815479,75.0218333 148.368024,73.4671667 150.285336,73.4671667 L202.325866,73.4671667 C204.241344,73.4671667 205.795723,75.02 205.795723,76.9376667 L205.795723,128.987833 C205.795723,130.9055 204.241344,132.458333 202.325866,132.458333" fill="#9795F9"></path>
                    <path d="M150.287169,205.333333 L202.327699,205.333333 C204.243177,205.333333 205.797556,203.7805 205.797556,201.862833 L205.797556,149.812667 C205.797556,147.896833 204.24501,146.342167 202.327699,146.342167 L150.287169,146.342167 C148.37169,146.342167 146.817312,147.895 146.817312,149.812667 L146.817312,201.862833 C146.817312,203.7805 148.37169,205.333333 150.287169,205.333333" fill="#9795F9"></path>
                    <path d="M77.4256619,205.333333 L129.466191,205.333333 C131.38167,205.333333 132.936049,203.7805 132.936049,201.862833 L132.936049,149.812667 C132.936049,147.896833 131.383503,146.342167 129.466191,146.342167 L77.4256619,146.342167 C75.5101833,146.342167 73.9558045,147.895 73.9558045,149.812667 L73.9558045,201.862833 C73.9576375,203.7805 75.5101833,205.333333 77.4256619,205.333333" fill="#3F3177"></path>
                    <path d="M4.56415479,205.333333 L56.6046843,205.333333 C58.5201629,205.333333 60.0745418,203.7805 60.0745418,201.862833 L60.0745418,149.812667 C60.0745418,147.896833 58.5219959,146.342167 56.6046843,146.342167 L4.56415479,146.342167 C2.64867617,146.342167 1.09429735,147.895 1.09429735,149.812667 L1.09429735,201.862833 C1.09429735,203.7805 2.64684318,205.333333 4.56415479,205.333333" fill="#6262CC"></path>
                </g>
                <g transform="translate(25.661914, 25.666667)">
                    <ellipse id="Oval" fill="#E4E4E4" cx="77.7922607" cy="77.2933333" rx="76.3258656" ry="76.34"></ellipse>
                    <path d="M77.7922607,22.2933333 L77.7922607,77.2933333 L22.802444,77.2933333 C22.802444,107.620333 47.4708758,132.293333 77.7922607,132.293333 C108.113646,132.293333 132.782077,107.620333 132.782077,77.2933333 C132.782077,46.9663333 108.113646,22.2933333 77.7922607,22.2933333" id="Path" fill="#3DB7E2"></path>
                </g>
            </g>
            <g id="Group" transform="translate(346.435845, 0.000000)">
                <g id="Path">
                    <path d="M56.107943,72.8713333 L4.06741344,72.8713333 C2.15193483,72.8713333 0.597556008,74.4241667 0.597556008,76.3418333 L0.597556008,128.392 C0.597556008,130.307833 2.15010183,131.8625 4.06741344,131.8625 L56.107943,131.8625 C58.0234216,131.8625 59.5778004,130.309667 59.5778004,128.392 L59.5778004,76.34 C59.5778004,74.4241667 58.0252546,72.8713333 56.107943,72.8713333" fill="#272359"></path>
                    <path d="M56.107943,145.75 L4.06741344,145.75 C2.15193483,145.75 0.597556008,147.302833 0.597556008,149.2205 L0.597556008,201.270667 C0.597556008,203.1865 2.15010183,204.741167 4.06741344,204.741167 L56.107943,204.741167 C58.0234216,204.741167 59.5778004,203.188333 59.5778004,201.270667 L59.5778004,149.2205 C59.5778004,147.304667 58.0252546,145.75 56.107943,145.75" fill="#6262CC"></path>
                    <path d="M56.107943,0 L4.06741344,0 C2.15193483,0 0.597556008,1.55283333 0.597556008,3.4705 L0.597556008,55.5206667 C0.597556008,57.4365 2.15010183,58.9911667 4.06741344,58.9911667 L56.107943,58.9911667 C58.0234216,58.9911667 59.5778004,57.4383333 59.5778004,55.5206667 L59.5778004,3.4705 C59.5778004,1.55283333 58.0252546,1.22124533e-15 56.107943,1.22124533e-15" fill="#9795F9"></path>
                    <path d="M128.96945,72.8713333 L76.9289206,72.8713333 C75.013442,72.8713333 73.4590631,74.4241667 73.4590631,76.3418333 L73.4590631,128.392 C73.4590631,130.307833 75.011609,131.8625 76.9289206,131.8625 L128.96945,131.8625 C130.884929,131.8625 132.439308,130.309667 132.439308,128.392 L132.439308,76.34 C132.439308,74.4241667 130.884929,72.8713333 128.96945,72.8713333" fill="#3F3177"></path>
                    <path d="M128.96945,145.75 L76.9289206,145.75 C75.013442,145.75 73.4590631,147.302833 73.4590631,149.2205 L73.4590631,201.270667 C73.4590631,203.1865 75.011609,204.741167 76.9289206,204.741167 L128.96945,204.741167 C130.884929,204.741167 132.439308,203.188333 132.439308,201.270667 L132.439308,149.2205 C132.439308,147.304667 130.884929,145.75 128.96945,145.75" fill="#9795F9"></path>
                    <path d="M128.96945,0 L76.9289206,0 C75.013442,0 73.4590631,1.55283333 73.4590631,3.4705 L73.4590631,55.5206667 C73.4590631,57.4365 75.011609,58.9911667 76.9289206,58.9911667 L128.96945,58.9911667 C130.884929,58.9911667 132.439308,57.4383333 132.439308,55.5206667 L132.439308,3.4705 C132.439308,1.55283333 130.884929,1.22124533e-15 128.96945,1.22124533e-15" fill="#3F3177"></path>
                    <path d="M201.830957,72.8713333 L149.790428,72.8713333 C147.874949,72.8713333 146.32057,74.4241667 146.32057,76.3418333 L146.32057,128.392 C146.32057,130.307833 147.873116,131.8625 149.790428,131.8625 L201.830957,131.8625 C203.746436,131.8625 205.300815,130.309667 205.300815,128.392 L205.300815,76.34 C205.298982,74.4241667 203.746436,72.8713333 201.830957,72.8713333" fill="#3F3177"></path>
                    <path d="M201.830957,145.75 L149.790428,145.75 C147.874949,145.75 146.32057,147.302833 146.32057,149.2205 L146.32057,201.270667 C146.32057,203.1865 147.873116,204.741167 149.790428,204.741167 L201.830957,204.741167 C203.746436,204.741167 205.300815,203.188333 205.300815,201.270667 L205.300815,149.2205 C205.298982,147.304667 203.746436,145.75 201.830957,145.75" fill="#272359"></path>
                    <path d="M201.830957,0 L149.790428,0 C147.874949,0 146.32057,1.55283333 146.32057,3.4705 L146.32057,55.5206667 C146.32057,57.4365 147.873116,58.9911667 149.790428,58.9911667 L201.830957,58.9911667 C203.746436,58.9911667 205.300815,57.4383333 205.300815,55.5206667 L205.300815,3.4705 C205.298982,1.55283333 203.746436,1.22124533e-15 201.830957,1.22124533e-15" fill="#272359"></path>
                </g>
                <g transform="translate(25.661914, 25.666667)">
                    <ellipse id="Oval" fill="#E4E4E4" cx="77.2790224" cy="76.6993333" rx="76.3258656" ry="76.34"></ellipse>
                    <g transform="translate(65.987780, 20.166667)" fill="#D6565C" id="Path">
                        <path d="M15.3238289,77.3483333 L7.27331976,77.3483333 C3.74847251,77.3483333 0.890835031,74.4901667 0.890835031,70.9646667 L0.890835031,7.392 C0.890835031,3.8665 3.74847251,1.00833333 7.27331976,1.00833333 L15.3238289,1.00833333 C18.8486762,1.00833333 21.7063136,3.8665 21.7063136,7.392 L21.7063136,70.9646667 C21.7063136,74.4901667 18.8486762,77.3483333 15.3238289,77.3483333"></path>
                        <path d="M14.7739308,112.053333 L7.83604888,112.053333 C4.00325866,112.053333 0.898167006,108.945833 0.898167006,105.114167 L0.898167006,98.175 C0.898167006,94.3415 4.00509165,91.2358333 7.83604888,91.2358333 L14.7739308,91.2358333 C18.606721,91.2358333 21.7118126,94.3433333 21.7118126,98.175 L21.7118126,105.114167 C21.7118126,108.945833 18.606721,112.053333 14.7739308,112.053333"></path>
                    </g>
                </g>
            </g>
        </g>
    </g>
</svg>